"question_id","answer_id","label_en_GB","label_it_IT"
"673777758","","Is your city or local government part of a larger metropolitan area with a formal institutional set-up?","La vostra città fa parte di un'area metropolitana allargata?"
"","7764599977","Nope","None"
"","7764599976","Yep!","Sine!"
"","7764599974","If Yep - what was the name?","Se sine - qual è il nome?"
